{
  "name": "sch",
  "title": "Cyberpunk Red: South City Hills",
  "description": "<p><a href=\"https://youtu.be/bI5kWzzR52M\">Welcome to Night City, Choomer!</a></p>",
  "authors": [],
  "flags": {},
  "version": "1.0.0",
  "scripts": [],
  "esmodules": [],
  "styles": [],
  "languages": [],
  "packs": [],
  "system": "cyberpunk-red-core",
  "dependencies": [],
  "socket": false,
  "protected": false,
  "background": "Start%20Screen.jpg",
  "coreVersion": "9.269",
  "resetKeys": false,
  "safeMode": false,
  "systemVersion": "0.80.1"
}