{
	"label": "Item Upgrades",
	"entries": {
		"Assault Rifle Drum Magazine": {
			"name": "Assault Rifle Drum Magazine",
			"description": ""
		},
		"Assault Rifle Extended Magazine": {
			"name": "Assault Rifle Extended Magazine",
			"description": ""
		},
		"Backup Drive": {
			"name": "Backup Drive",
			"description": "<p>Saves Non-Black IE programs when destroyed. These programs can be re-installed by a Netrunner as a meat action.&nbsp;</p>"
		},
		"Bayonet": {
			"name": "Bayonet",
			"description": ""
		},
		"DNA Lock": {
			"name": "DNA Lock",
			"description": "<p>Uses biometrics to lock the cyberdeck. Requires DV17 Electronics/Security Tech Check to crack.&nbsp;</p>"
		},
		"Grenade Launcher Drum Magazine": {
			"name": "Grenade Launcher Drum Magazine",
			"description": ""
		},
		"Grenade Launcher Extended Magazine": {
			"name": "Grenade Launcher Extended Magazine",
			"description": ""
		},
		"Grenade Launcher Underbarrel": {
			"name": "Grenade Launcher Underbarrel",
			"description": ""
		},
		"Hardened Circuitry": {
			"name": "Hardened Circuitry",
			"description": "<p>Cyberdeck cannot be disabled or destroyed by EMP effects.&nbsp;</p>"
		},
		"Heavy Pistol Drum Magazine": {
			"name": "Heavy Pistol Drum Magazine",
			"description": ""
		},
		"Heavy Pistol Extended Magazine": {
			"name": "Heavy Pistol Extended Magazine",
			"description": ""
		},
		"Heavy SMG Drum Magazine": {
			"name": "Heavy SMG Drum Magazine",
			"description": ""
		},
		"Heavy SMG Extended Magazine": {
			"name": "Heavy SMG Extended Magazine",
			"description": ""
		},
		"Infrared Nightvision Scope": {
			"name": "Infrared Nightvision Scope",
			"description": "<p>Reduces penalties against targets in darkness, smoke/fog to 0.</p>"
		},
		"Insulated Wiring": {
			"name": "Insulated Wiring",
			"description": "<p>Cyberdeck and user clothing cannot catch fire.&nbsp;</p>"
		},
		"KRASH Barrier": {
			"name": "KRASH Barrier",
			"description": "<p>Cyberdeck is immune to effects that force the Netrunner to Jack Out (safely or unsafely)</p>"
		},
		"Medium Pistol Drum Magazine": {
			"name": "Medium Pistol Drum Magazine",
			"description": ""
		},
		"Medium Pistol Extended Magazine": {
			"name": "Medium Pistol Extended Magazine",
			"description": ""
		},
		"Range Upgrade": {
			"name": "Range Upgrade",
			"description": "<p>Cyberdeck can connect to access points from up to 8m/yds away (instead of 6m/yds).</p>"
		},
		"Rocket Launcher Drum Magazine": {
			"name": "Rocket Launcher Drum Magazine",
			"description": ""
		},
		"Rocket Launcher Extended Magazine": {
			"name": "Rocket Launcher Extended Magazine",
			"description": ""
		},
		"SMG Drum Magazine": {
			"name": "SMG Drum Magazine",
			"description": ""
		},
		"SMG Extended Magazine": {
			"name": "SMG Extended Magazine",
			"description": ""
		},
		"Shotgun Drum Magazine": {
			"name": "Shotgun Drum Magazine",
			"description": ""
		},
		"Shotgun Extended Magazine": {
			"name": "Shotgun Extended Magazine",
			"description": ""
		},
		"Shotgun Underbarrel": {
			"name": "Shotgun Underbarrel",
			"description": ""
		},
		"Smartgun Link": {
			"name": "Smartgun Link",
			"description": "<p>Turns weapon into a \"Smartgun\". Refer to all rules specified on pg. 344 before using.&nbsp;</p>"
		},
		"Sniper Rifle Drum Magazine": {
			"name": "Sniper Rifle Drum Magazine",
			"description": ""
		},
		"Sniper Rifle Extended Magazine": {
			"name": "Sniper Rifle Extended Magazine",
			"description": ""
		},
		"Sniping Scope": {
			"name": "Sniping Scope",
			"description": "<p>Allows you to see detail up to 800m/yds. +1 to Single Shot/Aimed Shots for targets greater than 51m/yds.&nbsp;</p>"
		},
		"Very Heavy Pistol Drum Magazine": {
			"name": "Very Heavy Pistol Drum Magazine",
			"description": ""
		},
		"Very Heavy Pistol Extended Magazine": {
			"name": "Very Heavy Pistol Extended Magazine",
			"description": ""
		}
	}
}